drwxr-xr-x    5 1100       501              4096 Sep  7  2014 .	toolkit.genzentrum.lmu.de/pub/HH-suite/databases/hhsearch_dbs
drwxrwxr-x    4 502273     503              4096 Nov  6 09:43 ..	toolkit.genzentrum.lmu.de/pub/HH-suite/databases/hhsearch_dbs
-rw-r--r--    1 502273     501         169384118 Jul  5  2011 CATH_5Jul11.hmm.tar.gz	toolkit.genzentrum.lmu.de/pub/HH-suite/databases/hhsearch_dbs
-rw-rw-r--    1 502273     500          26423806 Feb 18  2011 COG_18Feb11.a3m.tar.gz	toolkit.genzentrum.lmu.de/pub/HH-suite/databases/hhsearch_dbs
-rw-rw-r--    1 502273     500          50082147 Feb 18  2011 COG_18Feb11.hhm.tar.gz	toolkit.genzentrum.lmu.de/pub/HH-suite/databases/hhsearch_dbs
-rw-rw-r--    1 502273     500          15994496 Feb 18  2011 KOG_18Feb11.a3m.tar.gz	toolkit.genzentrum.lmu.de/pub/HH-suite/databases/hhsearch_dbs
-rw-rw-r--    1 502273     500          60083379 Feb 18  2011 KOG_18Feb11.hhm.tar.gz	toolkit.genzentrum.lmu.de/pub/HH-suite/databases/hhsearch_dbs
-rw-rw-r--    1 502273     500             12272 Oct 23  2008 LICENSE_GPL_INTERPRO.txt	toolkit.genzentrum.lmu.de/pub/HH-suite/databases/hhsearch_dbs
-rw-rw-r--    1 502273     500              1817 Oct 23  2008 LICENSE_PFAM.txt	toolkit.genzentrum.lmu.de/pub/HH-suite/databases/hhsearch_dbs
-rw-rw-r--    1 502273     500              6183 Oct 23  2008 LICENSE_SUPERFAMILY.html	toolkit.genzentrum.lmu.de/pub/HH-suite/databases/hhsearch_dbs
-rw-rw-r--    1 1100       500          45189065 Oct 23  2008 cal.hhm	toolkit.genzentrum.lmu.de/pub/HH-suite/databases/hhsearch_dbs
-rw-rw-r--    1 502273     500        3986559820 Feb 18  2011 cd_18Feb11.a3m.tar.gz	toolkit.genzentrum.lmu.de/pub/HH-suite/databases/hhsearch_dbs
-rw-rw-r--    1 502273     500         387378364 Feb 18  2011 cd_18Feb11.hhm.tar.gz	toolkit.genzentrum.lmu.de/pub/HH-suite/databases/hhsearch_dbs
drwxrwxr-x    2 1100       501              4096 Jul  1  2013 genomes	toolkit.genzentrum.lmu.de/pub/HH-suite/databases/hhsearch_dbs
-rw-rw-r--    1 1100       501        4380426807 Aug  8  2013 nr90.tar.gz	toolkit.genzentrum.lmu.de/pub/HH-suite/databases/hhsearch_dbs
drwxr-xr-x    2 1100       501              4096 Jan 17  2014 old	toolkit.genzentrum.lmu.de/pub/HH-suite/databases/hhsearch_dbs
-rw-rw-r--    1 502273     500         232012000 Apr 20  2011 panther_19Apr11.hmm.tar.gz	toolkit.genzentrum.lmu.de/pub/HH-suite/databases/hhsearch_dbs
-rw-r--r--    1 1100       501        6900453741 Sep  7  2014 pdb70_06Sep14.a3m.tar.gz	toolkit.genzentrum.lmu.de/pub/HH-suite/databases/hhsearch_dbs
-rw-r--r--    1 1100       501         611931293 Sep  7  2014 pdb70_06Sep14.hhm.tar.gz	toolkit.genzentrum.lmu.de/pub/HH-suite/databases/hhsearch_dbs
-rw-r--r--    1 1100       501        1265947932 Sep  7  2014 pdb70_06Sep14.pdb.tar.gz	toolkit.genzentrum.lmu.de/pub/HH-suite/databases/hhsearch_dbs
drwxr-xr-x    2 1100       501             16384 Jul 31  2014 pdb_incremental	toolkit.genzentrum.lmu.de/pub/HH-suite/databases/hhsearch_dbs
-rw-r--r--    1 1100       501         241550065 Aug  1  2014 pdb_on_hold_31Jul14.a3m.tar.gz	toolkit.genzentrum.lmu.de/pub/HH-suite/databases/hhsearch_dbs
-rw-r--r--    1 1100       501          22581220 Aug  1  2014 pdb_on_hold_31Jul14.hhm.tar.gz	toolkit.genzentrum.lmu.de/pub/HH-suite/databases/hhsearch_dbs
-rw-r--r--    1 1100       501        2049256739 Nov 22  2013 pfamA_27.0.a3m.tar.gz	toolkit.genzentrum.lmu.de/pub/HH-suite/databases/hhsearch_dbs
-rw-r--r--    1 1100       501         135427209 Nov 22  2013 pfamA_27.0.hhm.tar.gz	toolkit.genzentrum.lmu.de/pub/HH-suite/databases/hhsearch_dbs
-rw-rw-r--    1 502273     500            196608 Feb 13  2008 pfamB_22.0.a3m.tar.gz	toolkit.genzentrum.lmu.de/pub/HH-suite/databases/hhsearch_dbs
-rw-rw-r--    1 502273     500            360448 Feb 13  2008 pfamB_22.0.hhm.tar.gz	toolkit.genzentrum.lmu.de/pub/HH-suite/databases/hhsearch_dbs
-rw-rw-r--    1 502273     500          66356784 Apr 20  2011 pirsf_19Apr11.hmm.tar.gz	toolkit.genzentrum.lmu.de/pub/HH-suite/databases/hhsearch_dbs
-rw-r--r--    1 1100       501        6445978796 Apr 19  2012 scop70_1.75.a3m.tar.gz	toolkit.genzentrum.lmu.de/pub/HH-suite/databases/hhsearch_dbs
-rw-r--r--    1 1100       501         164593930 Apr 19  2012 scop70_1.75.hhm.tar.gz	toolkit.genzentrum.lmu.de/pub/HH-suite/databases/hhsearch_dbs
-rw-rw-r--    1 1100       501        3381584280 Feb 14  2013 scop95_v1.75B.tar.gz	toolkit.genzentrum.lmu.de/pub/HH-suite/databases/hhsearch_dbs
-rw-rw-r--    1 502273     500          46513693 Feb 18  2011 smart_18Feb11.a3m.tar.gz	toolkit.genzentrum.lmu.de/pub/HH-suite/databases/hhsearch_dbs
-rw-rw-r--    1 502273     500           6204170 Feb 18  2011 smart_18Feb11.hhm.tar.gz	toolkit.genzentrum.lmu.de/pub/HH-suite/databases/hhsearch_dbs
-rw-rw-r--    1 502273     500         186961742 Apr 20  2011 supfam_19Apr11.hmm.tar.gz	toolkit.genzentrum.lmu.de/pub/HH-suite/databases/hhsearch_dbs
-rw-rw-r--    1 502273     500         103524745 Apr 20  2011 tigrfam_19Apr11.hmm.tar.gz	toolkit.genzentrum.lmu.de/pub/HH-suite/databases/hhsearch_dbs
drwxrwxr-x    4 1100       503              4096 Sep  8  2014 .	toolkit.genzentrum.lmu.de/pub/HH-suite/databases/hhsuite_dbs
drwxrwxr-x    4 502273     503              4096 Nov  6 09:43 ..	toolkit.genzentrum.lmu.de/pub/HH-suite/databases/hhsuite_dbs
drwxrwxr-x    2 1100       501              4096 Jul  1  2013 genomes	toolkit.genzentrum.lmu.de/pub/HH-suite/databases/hhsuite_dbs
-rw-rw-r--    1 1100       501        4650728928 Aug 28  2013 nr20_12Aug11.tar.gz	toolkit.genzentrum.lmu.de/pub/HH-suite/databases/hhsuite_dbs
lrwxrwxrwx    1 1100       501                19 Aug 28  2013 nr20_latest.tar.gz -> nr20_12Aug11.tar.gz	toolkit.genzentrum.lmu.de/pub/HH-suite/databases/hhsuite_dbs
drwxrwxr-x    2 1100       0                4096 Jan 17  2014 old	toolkit.genzentrum.lmu.de/pub/HH-suite/databases/hhsuite_dbs
-rw-r--r--    1 1100       501        7514537802 Sep  8  2014 pdb70_06Sep14.tar.gz	toolkit.genzentrum.lmu.de/pub/HH-suite/databases/hhsuite_dbs
-rw-rw-r--    1 1100       501        2969529459 May 21  2013 pfamA_27.0.tar.gz	toolkit.genzentrum.lmu.de/pub/HH-suite/databases/hhsuite_dbs
lrwxrwxrwx    1 0          0                  17 Aug 10  2013 pfamA_latest.tar.gz -> pfamA_27.0.tar.gz	toolkit.genzentrum.lmu.de/pub/HH-suite/databases/hhsuite_dbs
-rw-rw-r--    1 502273     500        1726216569 Jul 13  2011 scop70_1.75.tar.gz	toolkit.genzentrum.lmu.de/pub/HH-suite/databases/hhsuite_dbs
lrwxrwxrwx    1 0          0                  18 Aug 10  2013 scop70_latest.tar.gz -> scop70_1.75.tar.gz	toolkit.genzentrum.lmu.de/pub/HH-suite/databases/hhsuite_dbs
-rw-rw-r--    1 1100       501        4035089196 Jan  7  2013 uniprot20_02Sep11.tar.gz	toolkit.genzentrum.lmu.de/pub/HH-suite/databases/hhsuite_dbs
-rw-rw-r--    1 1100       501        6821750809 Jan  7  2013 uniprot20_2012_03.tar.gz	toolkit.genzentrum.lmu.de/pub/HH-suite/databases/hhsuite_dbs
-rw-rw-r--    1 1100       501        7965999510 Dec 19  2012 uniprot20_2012_10.tar.gz	toolkit.genzentrum.lmu.de/pub/HH-suite/databases/hhsuite_dbs
-rw-rw-r--    1 1100       501                59 Jan  9  2013 uniprot20_2012_10.tar.gz.md5	toolkit.genzentrum.lmu.de/pub/HH-suite/databases/hhsuite_dbs
-rw-rw-r--    1 501110     503        8146353360 Jun 10  2013 uniprot20_2013_03.tar.gz	toolkit.genzentrum.lmu.de/pub/HH-suite/databases/hhsuite_dbs
-rw-rw-r--    1 501110     503                59 Jun 10  2013 uniprot20_2013_03.tar.gz.md5	toolkit.genzentrum.lmu.de/pub/HH-suite/databases/hhsuite_dbs
lrwxrwxrwx    1 0          0                  24 Aug 10  2013 uniprot20_latest.tar.gz -> uniprot20_2013_03.tar.gz	toolkit.genzentrum.lmu.de/pub/HH-suite/databases/hhsuite_dbs
lrwxrwxrwx    1 0          0                  28 Aug 10  2013 uniprot20_latest.tar.gz.md5 -> uniprot20_2013_03.tar.gz.md5	toolkit.genzentrum.lmu.de/pub/HH-suite/databases/hhsuite_dbs
drwxr-xr-x    2 ftp      ftp           174 May 22  2013 Pfam1.0	ftp.ebi.ac.uk/pub/databases/Pfam/releases
drwxr-xr-x    3 ftp      ftp           443 May 22  2013 Pfam10.0	ftp.ebi.ac.uk/pub/databases/Pfam/releases
drwxr-xr-x    3 ftp      ftp           495 May 22  2013 Pfam11.0	ftp.ebi.ac.uk/pub/databases/Pfam/releases
drwxr-xr-x    3 ftp      ftp           473 May 22  2013 Pfam12.0	ftp.ebi.ac.uk/pub/databases/Pfam/releases
drwxr-xr-x    3 ftp      ftp           629 May 22  2013 Pfam13.0	ftp.ebi.ac.uk/pub/databases/Pfam/releases
drwxr-xr-x    3 ftp      ftp           696 May 22  2013 Pfam14.0	ftp.ebi.ac.uk/pub/databases/Pfam/releases
drwxr-xr-x    3 ftp      ftp           720 May 22  2013 Pfam15.0	ftp.ebi.ac.uk/pub/databases/Pfam/releases
drwxr-xr-x    3 ftp      ftp           657 May 22  2013 Pfam16.0	ftp.ebi.ac.uk/pub/databases/Pfam/releases
drwxr-xr-x    4 ftp      ftp           736 May 22  2013 Pfam17.0	ftp.ebi.ac.uk/pub/databases/Pfam/releases
drwxr-xr-x    3 ftp      ftp           683 May 22  2013 Pfam18.0	ftp.ebi.ac.uk/pub/databases/Pfam/releases
drwxr-xr-x    3 ftp      ftp           686 May 22  2013 Pfam19.0	ftp.ebi.ac.uk/pub/databases/Pfam/releases
drwxr-xr-x    3 ftp      ftp           722 May 22  2013 Pfam20.0	ftp.ebi.ac.uk/pub/databases/Pfam/releases
drwxr-xr-x    3 ftp      ftp           719 May 22  2013 Pfam21.0	ftp.ebi.ac.uk/pub/databases/Pfam/releases
drwxr-xr-x    3 ftp      ftp          1017 May 22  2013 Pfam22.0	ftp.ebi.ac.uk/pub/databases/Pfam/releases
drwxr-xr-x    3 ftp      ftp          1199 May 22  2013 Pfam23.0	ftp.ebi.ac.uk/pub/databases/Pfam/releases
drwxr-xr-x    3 ftp      ftp           940 May 22  2013 Pfam24.0	ftp.ebi.ac.uk/pub/databases/Pfam/releases
drwxr-xr-x    3 ftp      ftp           877 May 22  2013 Pfam25.0	ftp.ebi.ac.uk/pub/databases/Pfam/releases
drwxr-xr-x    4 ftp      ftp          1018 May 22  2013 Pfam26.0	ftp.ebi.ac.uk/pub/databases/Pfam/releases
drwxr-xr-x    5 ftp      ftp          1116 May 22  2013 Pfam27.0	ftp.ebi.ac.uk/pub/databases/Pfam/releases
drwxrwxr-x    4 ftp      ftp          1002 May 27  2015 Pfam28.0	ftp.ebi.ac.uk/pub/databases/Pfam/releases
drwxrwxr-x    3 ftp      ftp          1022 Dec 03 15:11 Pfam29.0	ftp.ebi.ac.uk/pub/databases/Pfam/releases
drwxr-xr-x    2 ftp      ftp           369 May 22  2013 Pfam4.0	ftp.ebi.ac.uk/pub/databases/Pfam/releases
drwxr-xr-x    2 ftp      ftp           397 May 22  2013 Pfam4.1	ftp.ebi.ac.uk/pub/databases/Pfam/releases
drwxr-xr-x    2 ftp      ftp           314 May 22  2013 Pfam4.2	ftp.ebi.ac.uk/pub/databases/Pfam/releases
drwxr-xr-x    2 ftp      ftp           315 May 22  2013 Pfam4.3	ftp.ebi.ac.uk/pub/databases/Pfam/releases
drwxr-xr-x    2 ftp      ftp           311 May 22  2013 Pfam4.4	ftp.ebi.ac.uk/pub/databases/Pfam/releases
drwxr-xr-x    2 ftp      ftp           255 May 22  2013 Pfam5.0	ftp.ebi.ac.uk/pub/databases/Pfam/releases
drwxr-xr-x    2 ftp      ftp           254 May 22  2013 Pfam5.1	ftp.ebi.ac.uk/pub/databases/Pfam/releases
drwxr-xr-x    2 ftp      ftp           254 May 22  2013 Pfam5.2	ftp.ebi.ac.uk/pub/databases/Pfam/releases
drwxr-xr-x    2 ftp      ftp           315 May 22  2013 Pfam5.3	ftp.ebi.ac.uk/pub/databases/Pfam/releases
drwxr-xr-x    2 ftp      ftp           254 May 22  2013 Pfam5.4	ftp.ebi.ac.uk/pub/databases/Pfam/releases
drwxr-xr-x    2 ftp      ftp           309 May 22  2013 Pfam5.5	ftp.ebi.ac.uk/pub/databases/Pfam/releases
drwxr-xr-x    2 ftp      ftp           351 May 22  2013 Pfam6.0	ftp.ebi.ac.uk/pub/databases/Pfam/releases
drwxr-xr-x    2 ftp      ftp           351 May 22  2013 Pfam6.1	ftp.ebi.ac.uk/pub/databases/Pfam/releases
drwxr-xr-x    2 ftp      ftp           351 May 22  2013 Pfam6.2	ftp.ebi.ac.uk/pub/databases/Pfam/releases
drwxr-xr-x    2 ftp      ftp           351 May 22  2013 Pfam6.3	ftp.ebi.ac.uk/pub/databases/Pfam/releases
drwxr-xr-x    2 ftp      ftp           373 May 22  2013 Pfam6.4	ftp.ebi.ac.uk/pub/databases/Pfam/releases
drwxr-xr-x    2 ftp      ftp           323 May 22  2013 Pfam6.5	ftp.ebi.ac.uk/pub/databases/Pfam/releases
drwxr-xr-x    2 ftp      ftp           384 May 22  2013 Pfam6.6	ftp.ebi.ac.uk/pub/databases/Pfam/releases
drwxr-xr-x    2 ftp      ftp           355 May 22  2013 Pfam7.0	ftp.ebi.ac.uk/pub/databases/Pfam/releases
drwxr-xr-x    2 ftp      ftp           386 May 22  2013 Pfam7.1	ftp.ebi.ac.uk/pub/databases/Pfam/releases
drwxr-xr-x    2 ftp      ftp           386 May 22  2013 Pfam7.2	ftp.ebi.ac.uk/pub/databases/Pfam/releases
drwxr-xr-x    2 ftp      ftp           358 May 22  2013 Pfam7.3	ftp.ebi.ac.uk/pub/databases/Pfam/releases
drwxr-xr-x    3 ftp      ftp           390 May 22  2013 Pfam7.4	ftp.ebi.ac.uk/pub/databases/Pfam/releases
drwxr-xr-x    3 ftp      ftp           390 May 22  2013 Pfam7.5	ftp.ebi.ac.uk/pub/databases/Pfam/releases
drwxr-xr-x    3 ftp      ftp           390 May 22  2013 Pfam7.6	ftp.ebi.ac.uk/pub/databases/Pfam/releases
drwxr-xr-x    3 ftp      ftp           360 May 15  2013 Pfam7.7	ftp.ebi.ac.uk/pub/databases/Pfam/releases
drwxr-xr-x    3 ftp      ftp           388 May 22  2013 Pfam7.8	ftp.ebi.ac.uk/pub/databases/Pfam/releases
drwxr-xr-x    3 ftp      ftp           418 May 22  2013 Pfam8.0	ftp.ebi.ac.uk/pub/databases/Pfam/releases
drwxr-xr-x    3 ftp      ftp           418 May 22  2013 Pfam9.0	ftp.ebi.ac.uk/pub/databases/Pfam/releases
-r--r--r--   1 ftp      anonymous    54118 Jan 16  2015 README	ftp.ncbi.nih.gov/pub/mmdb/cdd
-r--r--r--   1 ftp      anonymous 5020481130 May 28  2015 acd.tar.gz	ftp.ncbi.nih.gov/pub/mmdb/cdd
dr-xr-xr-x   2 ftp      anonymous     4096 Dec 29  2010 big_endian	ftp.ncbi.nih.gov/pub/mmdb/cdd
-r--r--r--   1 ftp      anonymous    97387 Jun  3  2008 bitscore_specific_2.14.txt	ftp.ncbi.nih.gov/pub/mmdb/cdd
-r--r--r--   1 ftp      anonymous   112987 Oct 20  2008 bitscore_specific_2.15.txt	ftp.ncbi.nih.gov/pub/mmdb/cdd
-r--r--r--   1 ftp      anonymous   115604 Dec 11  2008 bitscore_specific_2.16.txt	ftp.ncbi.nih.gov/pub/mmdb/cdd
-r--r--r--   1 ftp      anonymous   130338 Jun  4  2009 bitscore_specific_2.17.txt	ftp.ncbi.nih.gov/pub/mmdb/cdd
-r--r--r--   1 ftp      anonymous   144723 Dec 10  2009 bitscore_specific_2.18.txt	ftp.ncbi.nih.gov/pub/mmdb/cdd
-r--r--r--   1 ftp      anonymous   151230 Feb  1  2010 bitscore_specific_2.19.txt	ftp.ncbi.nih.gov/pub/mmdb/cdd
-r--r--r--   1 ftp      anonymous   154184 Mar 19  2010 bitscore_specific_2.20.txt	ftp.ncbi.nih.gov/pub/mmdb/cdd
-r--r--r--   1 ftp      anonymous   158784 Apr 13  2010 bitscore_specific_2.21.txt	ftp.ncbi.nih.gov/pub/mmdb/cdd
-r--r--r--   1 ftp      anonymous   167592 May 27  2010 bitscore_specific_2.22.txt	ftp.ncbi.nih.gov/pub/mmdb/cdd
-r--r--r--   1 ftp      anonymous   170720 Jul 29  2010 bitscore_specific_2.23.txt	ftp.ncbi.nih.gov/pub/mmdb/cdd
-r--r--r--   1 ftp      anonymous   175282 Sep  9  2010 bitscore_specific_2.24.txt	ftp.ncbi.nih.gov/pub/mmdb/cdd
-r--r--r--   1 ftp      anonymous   177429 Oct  7  2010 bitscore_specific_2.25.txt	ftp.ncbi.nih.gov/pub/mmdb/cdd
-r--r--r--   1 ftp      anonymous   179445 Dec 29  2010 bitscore_specific_2.26.txt	ftp.ncbi.nih.gov/pub/mmdb/cdd
-r--r--r--   1 ftp      anonymous   189843 Mar  2  2011 bitscore_specific_2.27.txt	ftp.ncbi.nih.gov/pub/mmdb/cdd
-r--r--r--   1 ftp      anonymous   201771 Mar 30  2011 bitscore_specific_2.28.txt	ftp.ncbi.nih.gov/pub/mmdb/cdd
-r--r--r--   1 ftp      anonymous   205527 May 13  2011 bitscore_specific_2.29.txt	ftp.ncbi.nih.gov/pub/mmdb/cdd
-r--r--r--   1 ftp      anonymous   211494 Jun 16  2011 bitscore_specific_2.30.txt	ftp.ncbi.nih.gov/pub/mmdb/cdd
-r--r--r--   1 ftp      anonymous   219002 Aug 19  2011 bitscore_specific_2.31.txt	ftp.ncbi.nih.gov/pub/mmdb/cdd
-r--r--r--   1 ftp      anonymous   219389 Oct 11  2011 bitscore_specific_2.32.txt	ftp.ncbi.nih.gov/pub/mmdb/cdd
-r--r--r--   1 ftp      anonymous   219389 Oct 28  2011 bitscore_specific_3.00.txt	ftp.ncbi.nih.gov/pub/mmdb/cdd
-r--r--r--   1 ftp      anonymous   220652 Nov  9  2011 bitscore_specific_3.01.txt	ftp.ncbi.nih.gov/pub/mmdb/cdd
-r--r--r--   1 ftp      anonymous   225653 Dec  7  2011 bitscore_specific_3.02.txt	ftp.ncbi.nih.gov/pub/mmdb/cdd
-r--r--r--   1 ftp      anonymous   226707 Jan 20  2012 bitscore_specific_3.03.txt	ftp.ncbi.nih.gov/pub/mmdb/cdd
-r--r--r--   1 ftp      anonymous   229049 Mar  8  2012 bitscore_specific_3.04.txt	ftp.ncbi.nih.gov/pub/mmdb/cdd
-r--r--r--   1 ftp      anonymous   233796 Mar 23  2012 bitscore_specific_3.05.txt	ftp.ncbi.nih.gov/pub/mmdb/cdd
-r--r--r--   1 ftp      anonymous   236907 May 29  2012 bitscore_specific_3.06.txt	ftp.ncbi.nih.gov/pub/mmdb/cdd
-r--r--r--   1 ftp      anonymous  1112993 Aug  7  2012 bitscore_specific_3.07.txt	ftp.ncbi.nih.gov/pub/mmdb/cdd
-r--r--r--   1 ftp      anonymous  1328098 Sep 17  2012 bitscore_specific_3.08.txt	ftp.ncbi.nih.gov/pub/mmdb/cdd
-r--r--r--   1 ftp      anonymous  1331478 Nov 14  2012 bitscore_specific_3.09.txt	ftp.ncbi.nih.gov/pub/mmdb/cdd
-r--r--r--   1 ftp      anonymous  1243802 Jun 11  2013 bitscore_specific_3.10.txt	ftp.ncbi.nih.gov/pub/mmdb/cdd
-r--r--r--   1 ftp      anonymous   840874 Feb 12  2014 bitscore_specific_3.11.txt	ftp.ncbi.nih.gov/pub/mmdb/cdd
-r--r--r--   1 ftp      anonymous  1010640 Nov 21  2014 bitscore_specific_3.12.txt	ftp.ncbi.nih.gov/pub/mmdb/cdd
-r--r--r--   1 ftp      anonymous  1208625 Sep 30  2014 bitscore_specific_3.12_old.txt	ftp.ncbi.nih.gov/pub/mmdb/cdd
-r--r--r--   1 ftp      anonymous  1125807 Apr 22  2015 bitscore_specific_3.13.txt	ftp.ncbi.nih.gov/pub/mmdb/cdd
-r--r--r--   1 ftp      anonymous  1135983 May 28  2015 bitscore_specific_3.14.txt	ftp.ncbi.nih.gov/pub/mmdb/cdd
-r--r--r--   1 ftp      anonymous  2608978 Jul 29  2010 cd00030_notree.acd	ftp.ncbi.nih.gov/pub/mmdb/cdd
-r--r--r--   1 ftp      anonymous  2192702 Jul 29  2010 cd00180_notree.acd	ftp.ncbi.nih.gov/pub/mmdb/cdd
-r--r--r--   1 ftp      anonymous  1619626 Jul 29  2010 cd00838_notree.acd	ftp.ncbi.nih.gov/pub/mmdb/cdd
-r--r--r--   1 ftp      anonymous  1403313 Jul 29  2010 cd00882_notree.acd	ftp.ncbi.nih.gov/pub/mmdb/cdd
-r--r--r--   1 ftp      anonymous  1318381 Jul 29  2010 cd01391_notree.acd	ftp.ncbi.nih.gov/pub/mmdb/cdd
-r--r--r--   1 ftp      anonymous   950882 Jul 29  2010 cd01659_notree.acd	ftp.ncbi.nih.gov/pub/mmdb/cdd
-r--r--r--   1 ftp      anonymous  2209817 Mar 19  2010 cd02039_notree.acd	ftp.ncbi.nih.gov/pub/mmdb/cdd
-r--r--r--   1 ftp      anonymous   691577 Jul 29  2010 cd04509_notree.acd	ftp.ncbi.nih.gov/pub/mmdb/cdd
-r--r--r--   1 ftp      anonymous  1822155 May 27  2010 cd05188_notree.acd	ftp.ncbi.nih.gov/pub/mmdb/cdd
-r--r--r--   1 ftp      anonymous      334 May 28  2015 cdd.info	ftp.ncbi.nih.gov/pub/mmdb/cdd
-r--r--r--   1 ftp      anonymous 3789681415 May 28  2015 cdd.tar.gz	ftp.ncbi.nih.gov/pub/mmdb/cdd
-r--r--r--   1 ftp      anonymous 38698708 May 28  2015 cdd.versions	ftp.ncbi.nih.gov/pub/mmdb/cdd
-r--r--r--   1 ftp      anonymous   447015 May 28  2015 cddannot.dat.gz	ftp.ncbi.nih.gov/pub/mmdb/cdd
-r--r--r--   1 ftp      anonymous   250396 May 28  2015 cddannot_generic.dat.gz	ftp.ncbi.nih.gov/pub/mmdb/cdd
-r--r--r--   1 ftp      anonymous  4966776 May 28  2015 cddid.tbl.gz	ftp.ncbi.nih.gov/pub/mmdb/cdd
-r--r--r--   1 ftp      anonymous  5438211 May 28  2015 cddid_all.tbl.gz	ftp.ncbi.nih.gov/pub/mmdb/cdd
-r--r--r--   1 ftp      anonymous 12221768 May 28  2015 cddmasters.fa.gz	ftp.ncbi.nih.gov/pub/mmdb/cdd
-r--r--r--   1 ftp      anonymous  1001343 May 28  2015 cdtrack.txt	ftp.ncbi.nih.gov/pub/mmdb/cdd
-r--r--r--   1 ftp      anonymous  1178862 May 28  2015 family_superfamily_links	ftp.ncbi.nih.gov/pub/mmdb/cdd
-r--r--r--   1 ftp      anonymous 275453388 May 28  2015 fasta.tar.gz	ftp.ncbi.nih.gov/pub/mmdb/cdd
dr-xr-xr-x   2 ftp      anonymous     4096 Dec  3  2014 little_endian	ftp.ncbi.nih.gov/pub/mmdb/cdd
dr-xr-xr-x   5 ftp      anonymous     4096 Nov  6 15:41 rpsbproc	ftp.ncbi.nih.gov/pub/mmdb/cdd
dr-xr-xr-x   4 ftp      anonymous     4096 Dec  9 15:27 temp	ftp.ncbi.nih.gov/pub/mmdb/cdd
